<svg xmlns="http://www.w3.org/2000/svg" xmlns:xlink="http://www.w3.org/1999/xlink" width="20" height="20" viewBox="0 0 20 20">
    <defs>
        <path id="a" d="M0 18.325h18.325V0H0z"/>
    </defs>
    <g fill="none" fill-rule="evenodd" transform="translate(1 1)">
        <path stroke="#000" stroke-linejoin="round" stroke-width=".772" d="M17.943 14.889a3.054 3.054 0 0 1-3.054 3.054H3.436A3.054 3.054 0 0 1 .382 14.89V3.436A3.054 3.054 0 0 1 3.436.382h11.453a3.054 3.054 0 0 1 3.054 3.054v11.453zM.382 6.49h5.501M12.422 6.49h5.54"/>
        <path stroke="#000" stroke-linejoin="round" stroke-width=".772" d="M13.362 9.162a4.2 4.2 0 1 1-8.4 0 4.2 4.2 0 0 1 8.4 0z"/>
        <mask id="b" fill="#fff">
            <use xlink:href="#a"/>
        </mask>
        <path stroke="#000" stroke-linejoin="round" stroke-width=".772" d="M14.125 4.963h2.291v-2.29h-2.29zM1.909.764V6.49M3.436.382V6.49M4.963.382V6.49" mask="url(#b)"/>
    </g>
</svg>
