<svg xmlns="http://www.w3.org/2000/svg" width="28" height="28" viewBox="0 0 28 28">
    <g fill="none" fill-rule="evenodd" stroke="#4F4F4F" stroke-linejoin="round" stroke-width="1.714">
        <path d="M18.964 9.982a8.983 8.983 0 0 1-8.983 8.982 8.982 8.982 0 1 1 8.982-8.982z"/>
        <path stroke-linecap="round" d="M16.127 16.127l10.4 10.4"/>
    </g>
</svg>
